{
  "$schema": "http://json-schema.org/schema",
  "cli": "nx",
  "$id": "NxQuarkusGradle",
  "title": "Init",
  "type": "object",
  "properties": {
    "javaVersion": {
      "description": "Java version",
      "oneOf": [
        {
          "type": "string"
        },
        {
          "type": "number"
        }
      ],
      "default": "11",
      "x-prompt": {
        "message": "Which version of Java would you like to use?",
        "type": "list",
        "items": [
          {
            "value": "17",
            "label": "17"
          },
          {
            "value": "11",
            "label": "11"
          }
        ]
      }
    },
    "rootProjectName": {
      "type": "string",
      "default": "quarkus-multi-project",
      "x-prompt": "What rootProjectName would you like to use?",
      "pattern": "^[a-zA-Z].*$"
    }
  },
  "required": ["javaVersion", "rootProjectName"]
}
