{
  "$schema": "http://json-schema.org/schema",
  "cli": "nx",
  "$id": "NxQuarkusGradleApp",
  "title": "Application",
  "type": "object",
  "properties": {
    "name": {
      "type": "string",
      "description": "",
      "$default": {
        "$source": "argv",
        "index": 0
      },
      "x-prompt": "What name would you like to use?"
    },
    "tags": {
      "type": "string",
      "description": "Add tags to the project (used for linting)",
      "alias": "t"
    },
    "directory": {
      "type": "string",
      "description": "A directory where the project is placed"
    },
    "groupId": {
      "type": "string",
      "default": "com.example",
      "x-prompt": "What groupId would you like to use?"
    },
    "projectVersion": {
      "type": "string",
      "default": "0.0.1-SNAPSHOT",
      "description": "Version of the project to generate",
      "alias": "v",
      "x-prompt": "What project version would you like to use?"
    },
    "configFormat": {
      "description": "Configuration format of the project",
      "type": "string",
      "default": ".properties",
      "x-prompt": {
        "message": "Which configuration format would you like to use?",
        "type": "list",
        "items": [
          {
            "value": ".properties",
            "label": "Properties "
          },
          {
            "value": ".yml",
            "label": "Yaml"
          }
        ]
      }
    }
  },
  "required": ["name", "groupId", "projectVersion", "configFormat"]
}
