{
  "$schema": "http://json-schema.org/schema",
  "executors": {
    "build": {
      "implementation": "./src/executors/build/executor",
      "schema": "./src/executors/build/schema.json",
      "description": "build executor"
    },
    "serve": {
      "implementation": "./src/executors/serve/executor",
      "schema": "./src/executors/serve/schema.json",
      "description": "serve executor"
    },
    "lint": {
      "implementation": "./src/executors/lint/executor",
      "schema": "./src/executors/lint/schema.json",
      "description": "lint executor"
    },
    "test": {
      "implementation": "./src/executors/test/executor",
      "schema": "./src/executors/test/schema.json",
      "description": "test executor"
    },
    "list-extensions": {
      "implementation": "./src/executors/list-extensions/executor",
      "schema": "./src/executors/list-extensions/schema.json",
      "description": "list-extensions executor"
    },
    "add-extension": {
      "implementation": "./src/executors/add-extension/executor",
      "schema": "./src/executors/add-extension/schema.json",
      "description": "add-extension executor"
    }
  }
}
