{
  "$schema": "..\\..\\node_modules\\nx\\schemas\\project-schema.json",
  "projectType": "application",
  "sourceRoot": "e2e/nx-quarkus-gradle-e2e/src",
  "targets": {
    "e2e": {
      "executor": "@nrwl/nx-plugin:e2e",
      "options": {
        "target": "nx-quarkus-gradle:build",
        "jestConfig": "e2e/nx-quarkus-gradle-e2e/jest.config.ts"
      }
    }
  },
  "tags": [],
  "implicitDependencies": ["nx-quarkus-gradle"]
}
